%YAML 1.1
%TAG !u! tag:unity3d.com,2011:
--- !u!114 &11400000
MonoBehaviour:
  m_ObjectHideFlags: 0
  m_CorrespondingSourceObject: {fileID: 0}
  m_PrefabInstance: {fileID: 0}
  m_PrefabAsset: {fileID: 0}
  m_GameObject: {fileID: 0}
  m_Enabled: 1
  m_EditorHideFlags: 0
  m_Script: {fileID: 11500000, guid: f50254a8b02246f42ae0f15ef731ba7b, type: 3}
  m_Name: Is Setting Note Location
  m_EditorClassIdentifier: 
  OnChanged: {fileID: 0}
  allowCache: 0
  _value: 0
  startingValue: 0
